﻿[
{
	"name": "zoneallerta",
	"layer": "zone_allerta",
	"group": 0,
	"group_name": "Amministrazione",
	"legend_name":"Zona Allerta Prot.Civile",
	"display": false,
	"output_name": "geojsonZoneAllerta",
	"maxResolution": 20000,
	"stroke_color": "yellow",
	"stroke_width": 4,
	"opacity": 0.3,
	"fill_color": "blue",
	"type": "vector"
},
{
	"name": "regioni",
	"layer": "regioni",
	"group": 1,
	"group_name": "Geografia",
	"legend_name":"Regioni",
	"display": false,
	"output_name": "geojsonRegioni",
	"stroke_color": "red",
	"stroke_width": 4,
	"opacity": 0.4,
	"fill_color": "green",
	"type": "vector"
},
{
	"name": "province",
	"layer": "province",
	"group": 1,
	"group_name": "Geografia",
	"legend_name":"Province",
	"display": false,
	"output_name": "geojsonProvince",
	"stroke_color": "black",
	"stroke_width": 2,
	"opacity": 0.2,
	"fill_color": "white",
	"type": "vector"
},
{
	"name": "conf_europa",
	"layer": "conf_europa",
	"group": 1,
	"group_name": "Geografia",
	"legend_name":"Europa",
	"display": false,
	"output_name": "geojsonConfEuropa",
	"stroke_color": "black",
	"stroke_width": 2,
	"opacity": 0.7,
	"fill_color": "white",
	"type": "vector"
},
{
	"name": "autostrade",
	"layer": "autostrade",
	"group": 2,
	"group_name": "Mobilità",
	"legend_name":"Autostrade",
	"display": false,
	"output_name": "geojsonAutostrade",
	"stroke_color": "green",
	"stroke_width": 4,
	"opacity": 1,
	"fill_color": "yellow",
	"type": "vector"
},
{
	"name": "iso_marittime",
	"layer": "iso_marittime",
	"group": 1,
	"group_name": "Geografia",
	"legend_name":"Isole",
	"display": false,
	"output_name": "geojsonIsoMarittime",
	"stroke_color": "red",
	"stroke_width": 4,
	"opacity": 0.8,
	"fill_color": "grey",
	"type": "vector"
},
{
	"name": "uff_per",
	"layer": "uff_per",
	"group": 0,
	"group_name": "Amministrazione",
	"legend_name":"Uffici Periferici",
	"display": false,
	"output_name": "geojsonUffPer",
	"stroke_color": "black",
	"stroke_width": 2,
	"opacity": 0.6,
	"fill_color": "brown",
	"type": "vector"
},
{
	"name": "capoluoghi",
	"layer": "capoluoghi",
	"group": 1,
	"group_name": "Geografia",
	"legend_name":"Capoluoghi",
	"display": false,
	"output_name": "geojsonCapoluoghi",
	"stroke_color": "black",
	"stroke_width": 5,
	"opacity": 1,
	"fill_color": "black",
	"type": "vector"
},
{
	"name": "bacini",
	"layer": "bacini",
	"group": 3,
	"group_name": "Idrografia",
	"legend_name":"Bacini",
	"display": false,
	"output_name": "geojsonBacini",
	"stroke_color": "black",
	"stroke_width": 2,
	"opacity": 1,
	"fill_color": "rgba(0, 0, 255, 0.2)",
	"type": "vector"
},
{
	"name": "bacini_uff",
	"layer": "bacini_uff",
	"group": 3,
	"group_name": "Idrografia",
	"legend_name":"Bacini Ufficiali",
	"display": false,
	"output_name": "geojsonBaciniUff",
	"stroke_color": "black",
	"stroke_width": 2,
	"opacity": 1,
	"fill_color": "rgba(0, 120, 255, 0.8)",
	"type": "vector"
},
{
	"name": "bacini_reg",
	"layer": "bacini_reg",
	"group": 3,
	"group_name": "Idrografia",
	"legend_name":"Bacini Regionali",
	"display": false,
	"output_name": "geojsonBaciniReg",
	"stroke_color": "black",
	"stroke_width": 2,
	"opacity": 1,
	"fill_color": "rgba(120, 30, 255, 0.6)",
	"type": "vector"
},
{
	"name": "aree_coop_eu",
	"layer": "aree_coop_eu",
	"group": 0,
	"group_name": "Amministrazione",
	"legend_name":"Aree Cooperative",
	"display": false,
	"output_name": "geojsonAreeCoopEu",
	"stroke_color": "black",
	"stroke_width": 2,
	"opacity": 0.7,
	"fill_color": "yellow",
	"type": "vector"
},
{
	"name": "cc_interregionali",
	"layer": "cc_interregionali",
	"group": 0,
	"group_name": "Amministrazione",
	"legend_name":"Carabinieri Interregionali",
	"display": false,
	"output_name": "geojsonCcInterregionali",
	"stroke_color": "black",
	"stroke_width": 2,
	"opacity": 0.7,
	"fill_color": "brown",
	"type": "vector"
},
{
	"name": "cc_regionali",
	"layer": "cc_regionali",
	"group": 0,
	"group_name": "Amministrazione",
	"legend_name":"Carabinieri Regionali",
	"display": false,
	"output_name": "geojsonCcRegionali",
	"stroke_color": "black",
	"stroke_width": 2,
	"opacity": 0.7,
	"fill_color": "red",
	"type": "vector"
},
{
	"name": "cc_tenenze",
	"layer": "cc_tenenze",
	"group": 0,
	"group_name": "Amministrazione",
	"legend_name":"Carabinieri Tenenze",
	"display": false,
	"output_name": "geojsonCcTenenze",
	"stroke_color": "black",
	"stroke_width": 2,
	"opacity": 0.7,
	"fill_color": "blue",
	"type": "vector"
},
{
	"name": "sta_sisma",
	"layer": "sta_sisma",
	"group": 4,
	"group_name": "Statistica",
	"legend_name":"Statistiche Sisma",
	"display": false,
	"output_name": "geojsonStaSisma",
	"stroke_color": "black",
	"stroke_width": 2,
	"opacity": 0.7,
	"fill_color": "green",
	"type": "vector"
},
{
	"name": "zone_sismiche",
	"layer": "zone_sismiche",
	"group": 1,
	"group_name": "Geografia",
	"legend_name":"Zone Sismiche",
	"display": false,
	"output_name": "geojsonZoneSismiche",
	"stroke_color": "black",
	"stroke_width": 2,
	"opacity": 0.7,
	"fill_color": "green",
	"type": "vector"
},
{
	"name": "agenzia_demanio",
	"layer": "agenzia_demanio",
	"group": 0,
	"group_name": "Amministrazione",
	"legend_name":"Agenzia Demanio",
	"display": false,
	"output_name": "geojsonAgenziaDemanio",
	"stroke_color": "black",
	"stroke_width": 2,
	"opacity": 0.7,
	"fill_color": "yellow",
	"type": "vector"
},
{
	"name": "agenzia_dogane_reg",
	"layer": "agenzia_dogane_reg",
	"group": 0,
	"group_name": "Amministrazione",
	"legend_name":"Agenzia Dogane Regionale",
	"display": false,
	"output_name": "geojsonAgenziaDoganeReg",
	"stroke_color": "black",
	"stroke_width": 2,
	"opacity": 0.7,
	"fill_color": "brown",
	"type": "vector"
},
{
	"name": "comuni",
	"layer": "comuni",
	"group": 1,
	"group_name": "Geografia",
	"legend_name":"Comuni",
	"display": false,
	"output_name": "geojsonComuni",
	"maxResolution": 330,
	"stroke_color": "black",
	"stroke_width": 2,
	"opacity": 0.5,
	"fill_color": "white",
	"type": "vector"
},


{
	"name": "r01",
	"layer": "r01",
	"group": 5,
	"group_name": "Località Abitate",
	"legend_name":"Località Abitate - Piemonte",
	"display": false,
	"output_name": "geojsonR01",
	"maxResolution": 330,
	"stroke_color": "grey",
	"stroke_width": 2,
	"opacity": 0.8,
	"fill_color": "yellow",
	"type": "vector"
},
{
	"name": "r02",
	"layer": "r02",
	"group": 5,
	"group_name": "Località Abitate",
	"legend_name":"Località Abitate - Valle d'Aosta",
	"display": false,
	"output_name": "geojsonR02",
	"maxResolution": 330,
	"stroke_color": "grey",
	"stroke_width": 2,
	"opacity": 0.8,
	"fill_color": "yellow",
	"type": "vector"
},
{
	"name": "r03",
	"layer": "r03",
	"group": 5,
	"group_name": "Località Abitate",
	"legend_name":"Località Abitate - Lombardia",
	"display": false,
	"output_name": "geojsonR03",
	"maxResolution": 330,
	"stroke_color": "grey",
	"stroke_width": 2,
	"opacity": 0.8,
	"fill_color": "yellow",
	"type": "vector"
},
{
	"name": "r04",
	"layer": "r04",
	"group": 5,
	"group_name": "Località Abitate",
	"legend_name":"Località Abitate - Trentino",
	"display": false,
	"output_name": "geojsonR04",
	"maxResolution": 330,
	"stroke_color": "grey",
	"stroke_width": 2,
	"opacity": 0.8,
	"fill_color": "yellow",
	"type": "vector"
},
{
	"name": "r05",
	"layer": "r05",
	"group": 5,
	"group_name": "Località Abitate",
	"legend_name":"Località Abitate - Veneto",
	"display": false,
	"output_name": "geojsonR05",
	"maxResolution": 330,
	"stroke_color": "grey",
	"stroke_width": 2,
	"opacity": 0.8,
	"fill_color": "yellow",
	"type": "vector"
},
{
	"name": "r06",
	"layer": "r06",
	"group": 5,
	"group_name": "Località Abitate",
	"legend_name":"Località Abitate - Friuli",
	"display": false,
	"output_name": "geojsonR06",
	"maxResolution": 330,
	"stroke_color": "grey",
	"stroke_width": 2,
	"opacity": 0.8,
	"fill_color": "yellow",
	"type": "vector"
},
{
	"name": "r07",
	"layer": "r07",
	"group": 5,
	"group_name": "Località Abitate",
	"legend_name":"Località Abitate - Liguria",
	"display": false,
	"output_name": "geojsonR07",
	"maxResolution": 330,
	"stroke_color": "grey",
	"stroke_width": 2,
	"opacity": 0.8,
	"fill_color": "yellow",
	"type": "vector"
},
{
	"name": "r08",
	"layer": "r08",
	"group": 5,
	"group_name": "Località Abitate",
	"legend_name":"Località Abitate - Emilia Romagna",
	"display": false,
	"output_name": "geojsonR08",
	"maxResolution": 330,
	"stroke_color": "grey",
	"stroke_width": 2,
	"opacity": 0.8,
	"fill_color": "yellow",
	"type": "vector"
},
{
	"name": "r09",
	"layer": "r09",
	"group": 5,
	"group_name": "Località Abitate",
	"legend_name":"Località Abitate - Toscana",
	"display": false,
	"output_name": "geojsonR09",
	"maxResolution": 330,
	"stroke_color": "grey",
	"stroke_width": 2,
	"opacity": 0.8,
	"fill_color": "yellow",
	"type": "vector"
},
{
	"name": "r10",
	"layer": "r10",
	"group": 5,
	"group_name": "Località Abitate",
	"legend_name":"Località Abitate - Umbria",
	"display": false,
	"output_name": "geojsonR10",
	"maxResolution": 330,
	"stroke_color": "grey",
	"stroke_width": 2,
	"opacity": 0.8,
	"fill_color": "yellow",
	"type": "vector"
},
{
	"name": "r11",
	"layer": "r11",
	"group": 5,
	"group_name": "Località Abitate",
	"legend_name":"Località Abitate - Marche",
	"display": false,
	"output_name": "geojsonR11",
	"maxResolution": 330,
	"stroke_color": "grey",
	"stroke_width": 2,
	"opacity": 0.8,
	"fill_color": "yellow",
	"type": "vector"
},
{
	"name": "r12",
	"layer": "r12",
	"group": 5,
	"group_name": "Località Abitate",
	"legend_name":"Località Abitate - Lazio",
	"display": false,
	"output_name": "geojsonR12",
	"maxResolution": 330,
	"stroke_color": "grey",
	"stroke_width": 2,
	"opacity": 0.8,
	"fill_color": "yellow",
	"type": "vector"
},
{
	"name": "r13",
	"layer": "r13",
	"group": 5,
	"group_name": "Località Abitate",
	"legend_name":"Località Abitate - Abruzzo",
	"display": false,
	"output_name": "geojsonR13",
	"maxResolution": 330,
	"stroke_color": "grey",
	"stroke_width": 2,
	"opacity": 0.8,
	"fill_color": "yellow",
	"type": "vector"
},
{
	"name": "r14",
	"layer": "r14",
	"group": 5,
	"group_name": "Località Abitate",
	"legend_name":"Località Abitate - Molise",
	"display": false,
	"output_name": "geojsonR14",
	"maxResolution": 330,
	"stroke_color": "grey",
	"stroke_width": 2,
	"opacity": 0.8,
	"fill_color": "yellow",
	"type": "vector"
},
{
	"name": "r15",
	"layer": "r15",
	"group": 5,
	"group_name": "Località Abitate",
	"legend_name":"Località Abitate - Campania",
	"display": false,
	"output_name": "geojsonR15",
	"maxResolution": 330,
	"stroke_color": "grey",
	"stroke_width": 2,
	"opacity": 0.8,
	"fill_color": "yellow",
	"type": "vector"
},
{
	"name": "r16",
	"layer": "r16",
	"group": 5,
	"group_name": "Località Abitate",
	"legend_name":"Località Abitate - Puglia",
	"display": false,
	"output_name": "geojsonR16",
	"maxResolution": 330,
	"stroke_color": "grey",
	"stroke_width": 2,
	"opacity": 0.8,
	"fill_color": "yellow",
	"type": "vector"
},
{
	"name": "r17",
	"layer": "r17",
	"group": 5,
	"group_name": "Località Abitate",
	"legend_name":"Località Abitate - Basilicata",
	"display": false,
	"output_name": "geojsonR17",
	"maxResolution": 330,
	"stroke_color": "grey",
	"stroke_width": 2,
	"opacity": 0.8,
	"fill_color": "yellow",
	"type": "vector"
},
{
	"name": "r18",
	"layer": "r18",
	"group": 5,
	"group_name": "Località Abitate",
	"legend_name":"Località Abitate - Calabria",
	"display": false,
	"output_name": "geojsonR18",
	"maxResolution": 330,
	"stroke_color": "grey",
	"stroke_width": 2,
	"opacity": 0.8,
	"fill_color": "yellow",
	"type": "vector"
},
{
	"name": "r19",
	"layer": "r19",
	"group": 5,
	"group_name": "Località Abitate",
	"legend_name":"Località Abitate - Sicilia",
	"display": false,
	"output_name": "geojsonR19",
	"maxResolution": 330,
	"stroke_color": "grey",
	"stroke_width": 2,
	"opacity": 0.8,
	"fill_color": "yellow",
	"type": "vector"
},
{
	"name": "r20",
	"layer": "r20",
	"group": 5,
	"group_name": "Località Abitate",
	"legend_name":"Località Abitate - Sardegna",
	"display": false,
	"output_name": "geojsonR20",
	"maxResolution": 330,
	"stroke_color": "grey",
	"stroke_width": 2,
	"opacity": 0.8,
	"fill_color": "yellow",
	"type": "vector"
},
{
	"name": "laghi",
	"layer": "laghi",
	"group": 3,
	"group_name": "Idrografia",
	"legend_name":"Laghi",
	"display": false,
	"output_name": "geojsonLaghi",
	"stroke_color": "black",
	"stroke_width": 1,
	"opacity": 0.2,
	"fill_color": "blue",
	"type": "vector"
},
{
	"name": "fiumi",
	"layer": "fiumi",
	"group": 3,
	"group_name": "Idrografia",
	"legend_name":"Fiumi",
	"display": false,
	"output_name": "geojsonFiumi",
	"stroke_color": "blue",
	"stroke_width": 2,
	"opacity": 1,
	"fill_color": "blue",
	"type": "vector"
},
{
	"name": "corsi",
	"layer": "corsi",
	"group": 3,
	"group_name": "Idrografia",
	"legend_name":"Corsi",
	"display": false,
	"output_name": "geojsonCorsi",
	"stroke_color": "blue",
	"stroke_width": 1,
	"maxResolution": 200,
	"opacity": 1,
	"fill_color": "blue",
	"type": "vector"
},
{
	"name": "ferrovie",
	"layer": "ferrovie",
	"group": 2,
	"group_name": "Mobilità",
	"legend_name":"Ferrovie",
	"display": false,
	"output_name": "geojsonFerrovie",
	"stroke_color": "orange",
	"stroke_width": 3,
	"maxResolution": 200,
	"opacity": 1,
	"fill_color": "orange",
	"type": "vector"
},
{
	"name": "strade",
	"layer": "strade",
	"group": 2,
	"group_name": "Mobilità",
	"legend_name":"Strade",
	"display": false,
	"output_name": "geojsonStrade",
	"stroke_color": "black",
	"stroke_width": 3,
	"maxResolution": 200,
	"opacity": 1,
	"fill_color": "black",
	"type": "vector"
}




]